…
``` r
suspicious_ips <- dns_data %>%
  group_by(source_ip, query) %>%
  filter(n() > 10) %>%
  arrange(timestamp) %>%
  mutate(interval = as.numeric(difftime(timestamp, lag(timestamp), units = "secs"))) %>%
  summarise(sd_interval = sd(interval, na.rm = TRUE), .groups = "drop") %>%
  filter(sd_interval < 1)  # почти одинаковые интервалы

print(suspicious_ips)
```

    # A tibble: 118 × 3
       source_ip       query                         sd_interval
       <chr>           <chr>                               <dbl>
     1 10.10.117.210   "hq.h"                            0      
     2 10.10.117.210   "httphq.hec.net"                  0      
     3 10.10.117.210   "www.h"                           0      
     4 169.254.228.26  "tirani"                          0.350  
     5 192.168.0.3     "\\x01\\x02__msbrowse__\\x02"     0.269  
     6 192.168.0.3     "isatap"                          0.313  
     7 192.168.0.3     "tirani"                          0.350  
     8 192.168.202.100 "addons.mozilla.org"              0.00414
     9 192.168.202.100 "sb-ssl.google.com"               0.00507
    10 192.168.202.100 "tomcat.apache.org"               0.00488
    # ℹ 108 more rows
…
